<?xml version="1.0" encoding="UTF-8" standalone="no"?>
<svg
  xmlns="http://www.w3.org/2000/svg"
  version="1.1"
  width="47.017941"
  height="40">
  <g transform="matrix(0.11767621,0,0,0.11767799,0.00188448,-0.01983039)">
    <path
      fill="#ffffff"
      d="M 17.818,0.911 C 9.234,3.603 2.294,11.384 0.624,20.19 c -0.848,4.47 -0.856,292.746 -0.008,297.215 1.446,7.629 7.118,14.834 14.343,18.22 l 3.624,1.698 h 150.551 150.551 l 3.624,-1.698 c 7.224,-3.386 12.896,-10.591 14.343,-18.22 0.862,-4.542 0.838,-292.744 -0.024,-297.319 C 336.209,12.554 330.543,5.404 323.309,2.013 L 319.685,0.315 170.079,0.197 C 47.599,0.1 19.991,0.23 17.818,0.911 m 69.837,48.998 c 23.216,11.474 21.12,44.494 -3.353,52.817 C 64.645,109.411 44.127,92.157 47.299,71.611 50.214,52.737 70.885,41.621 87.655,49.909 m 150.226,73.597 c 28.043,3.127 42.868,18.048 47.819,48.129 1.687,10.248 2.15,29.747 1.738,73.247 l -0.401,42.362 h -24.434 -24.435 l -0.205,-48.346 c -0.226,-53.072 -0.197,-52.663 -4.268,-60.642 -9.308,-18.244 -41.145,-15.358 -48.479,4.396 -3.372,9.081 -3.363,8.93 -3.63,58.45 l -0.249,46.142 H 156.81 132.283 v -80 -80 h 23.623 23.622 v 10.709 c 0,11.385 0.414,12.745 2.704,8.87 10.199,-17.267 31.157,-26.048 55.649,-23.317 m -137.724,83.738 v 80 H 75.591 51.024 v -80 -80 h 24.567 24.566 v 80 m 269.157,87.177 c -26.113,8.516 -18.676,47.545 8.687,45.587 23.83,-1.705 29.804,-34.332 8.141,-44.462 -4.204,-1.966 -12.54,-2.523 -16.828,-1.125 m 12.944,3.244 c 13.994,4.156 18.549,22.788 8.12,33.217 -12.612,12.612 -33.863,3.488 -33.836,-14.528 0.019,-13.187 12.848,-22.51 25.716,-18.689 m -14.384,19.185 v 12.599 h 1.89 1.89 v -5.355 -5.354 l 2.047,10e-4 c 1.885,0.001 2.313,0.425 5.405,5.355 3.18,5.071 3.474,5.353 5.579,5.353 2.698,0 2.654,-0.173 -1.692,-6.612 -3.016,-4.47 -3.109,-4.727 -1.713,-4.727 2.572,0 4.862,-3.077 4.862,-6.532 0,-6.009 -2.09,-7.326 -11.623,-7.326 h -6.645 v 12.598 m 13.313,-7.611 c 2.695,3.329 0.421,5.722 -5.439,5.722 h -4.094 v -3.853 -3.853 l 4.178,0.266 c 3.415,0.217 4.394,0.531 5.355,1.718"></path>
  </g>
</svg>
